Aula10-Pop_de_dados_e_datas
…
tibble

tibble::as_tibble(mortes_z)

A tibble: 32,765 × 80

origem tipobito dtobito horaobito natural codmu…¹ dtnasc idade sexo racacor          

1 1 2 28022021 1430 832 320130 10071… 469 1 4

2 1 2 08032021 1030 832 320020 08061… 476 2 1

3 1 2 09032021 1430 832 320010 06031… 474 1 

4 1 2 11032021 0102 832 320150 10091… 477 1 1

5 1 2 29012021 0810 831 315820 02051… 476 2 4

6 1 2 29012021 0530 832 320130 17021… 470 1 1

7 1 2 03022021 0600 832 320210 24051… 467 2 4

8 1 2 08022021 0600 831 310110 23081… 459 1 4

9 1 2 27062021 0531 832 320210 20061… 462 2 2

10 1 2 14042021 1305 832 320000 25101… 478 1 1

# … with 32,755 more rows, 70 more variables: estciv , esc , # esc2010 , seriescfal , ocup , codmunres , # lococor , codestab , codmunocor , idademae , # escmae , escmae2010 , seriescmae , ocupmae , # qtdfilvivo , qtdfilmort , gravidez , semagestac , # gestacao , parto , obitoparto , peso , # tpmorteoco , obitograv , obitopuerp , assistmed , …
…
