Distribuicoes
…
fct: significa variável fator, também conhecida como variável categórica.

int: significa uma variável quantitativa \| *números inteiros*.

dbl: significa dupla precisão, uma variável quantitativa que essencialmente é contínua \| *valores decimais*.

lgl: significa valor lógico, categoria verdadeiro ou falso, `TRUE | 1` ou `FALSE | 0`

chr: significa uma variável do tipo texto

date: *datas* \| (y-m-d) = ano-mês-dia

tibble(mortes_sir)

A tibble: 28,524 × 9

tipobito dtobito idade sexo racacor estciv esc2010 causabas_o codmunres         

1 2 28022021 69 1 4 4 1 J440 320130

2 2 08032021 76 2 1   E789 320520

3 2 11032021 77 1 1 2 1 C349 320320

4 2 29012021 76 2 4 3 1 E789 320210

5 2 29012021 70 1 1 1 1 I639 320130

6 2 03022021 67 2 4 2 0 I639 320130

7 2 08022021 59 1 4 4 3 I630 320130

8 2 27062021 62 2 2 1 5 C12 320210

9 2 14042021 78 1 1 4 5 B342 320520

10 2 14042021 67 1 1 2 9 B342 320520

# … with 28,514 more rows
…
